2,marcal,calculo,4,segunda
2,eloiza,ingles2,2,segunda,terca
2,wilson,administracao,2,segunda,terca
2,favan,iot,4,quarta,quinta,sexta
2,favan,java1,4
2,elvio,greenhouse,2,quinta,sexta
2,dario,gestao,2,sexta